build (read-only)/AU_tb.vcd
$date
	Sat Feb 24 17:50:50 2018
$end
$version
	Icarus Verilog
$end
$timescale
	1ns
$end
$scope module AU_tb $end
$var wire 1 ! oSDA $end
$var reg 1 " abit $end
$var reg 7 # addrIn [6:0] $end
$var reg 1 $ clk $end
$var reg 1 % go $end
$var reg 1 & rst $end
$scope module uut $end
$var wire 1 ' R_W $end
$var wire 1 " abit $end
$var wire 7 ( addrIn [6:0] $end
$var wire 1 $ clk $end
$var wire 1 % go $end
$var wire 1 & rst $end
$var reg 8 ) addr [7:0] $end
$var reg 1 ! oSDA $end
$upscope $end
$upscope $end
$enddefinitions $end
#0
$dumpvars
bx )
b0 (
0'
0&
0%
0$
b0 #
0"
0!
$end
#5
1$
#10
0$
#15
1$
1&
#20
0$
#25
1$
b1000001 #
b1000001 (
#30
0$
#35
b1000001 )
1$
1%
#40
0$
#45
b100000 )
1!
1$
1"
0%
#50
0$
#55
b10000 )
0!
1$
#60
0$
#65
b1000 )
1$
#70
0$
#75
b100 )
1$
#80
0$
#85
b10 )
1$
#90
0$
#95
b1 )
1$
#100
0$
#105
b0 )
1!
1$
#110
0$
#115
0!
1$
#120
0$
#125
1$
0"
