build (read-only)/BIU_tb.vcd
$date
	Sat Feb 24 18:14:19 2018
$end
$version
	Icarus Verilog
$end
$timescale
	1ns
$end
$scope module BIU_tb $end
$var wire 1 ! SDA $end
$var wire 1 " input_value $end
$var wire 1 # iSDA $end
$var wire 1 $ SCL $end
$var reg 1 % en $end
$var reg 1 & iSCL $end
$var reg 1 ' oSDA $end
$var reg 1 ( output_value $end
$scope module uut $end
$var wire 1 $ SCL $end
$var wire 1 ! SDA $end
$var wire 1 % en $end
$var wire 1 & iSCL $end
$var wire 1 ' oSDA $end
$var reg 1 # iSDA $end
$var reg 1 ) mid $end
$upscope $end
$upscope $end
$enddefinitions $end
#0
$dumpvars
x)
x(
0'
0&
0%
0$
x#
z"
x!
$end
#5
z)
1$
1&
#10
0$
0&
#15
1$
1&
1'
#20
0$
0&
#25
1$
1&
#30
0$
0&
#35
1)
z#
1!
1"
1$
1&
1%
#40
0$
0&
#45
1$
1&
#50
0$
0&
#55
z)
z"
x!
1$
1&
0%
#60
1!
0$
0&
1(
#65
1#
1$
1&
#70
0$
0&
#75
1$
1&
#80
0$
0&
#85
1$
1&
#90
0$
0&
#95
1$
1&
#100
0$
0&
#105
1$
1&
#110
0$
0&
#115
1$
1&
#120
0$
0&
#125
1$
1&
#130
0$
0&
#135
1$
1&
#140
0$
0&
#145
1$
1&
#150
0$
0&
#155
1$
1&
#160
0$
0&
#165
1$
1&
#170
0$
0&
#175
1$
1&
#180
0$
0&
#185
1$
1&
#190
0$
0&
#195
1$
1&
#200
0$
0&
#205
1$
1&
#210
0$
0&
#215
1$
1&
#220
0$
0&
#225
1$
1&
#230
0$
0&
#235
1$
1&
#240
0$
0&
#245
1$
1&
#250
0$
0&
#255
1$
1&
#260
0$
0&
#265
1$
1&
#270
0$
0&
#275
1$
1&
#280
0$
0&
#285
1$
1&
#290
0$
0&
#295
1$
1&
#300
0$
0&
#305
1$
1&
#310
0$
0&
#315
1$
1&
#320
0$
0&
#325
1$
1&
#330
0$
0&
#335
1$
1&
#340
0$
0&
#345
1$
1&
#350
0$
0&
#355
1$
1&
#360
0$
0&
#365
1$
1&
#370
0$
0&
#375
1$
1&
#380
0$
0&
#385
1$
1&
#390
0$
0&
#395
1$
1&
#400
0$
0&
#405
1$
1&
#410
0$
0&
#415
1$
1&
#420
0$
0&
#425
1$
1&
#430
0$
0&
#435
1$
1&
#440
0$
0&
#445
1$
1&
#450
0$
0&
#455
1$
1&
#460
0$
0&
#465
1$
1&
#470
0$
0&
#475
1$
1&
#480
0$
0&
#485
1$
1&
#490
0$
0&
#495
1$
1&
#500
0$
0&
#505
1$
1&
#510
0$
0&
#515
1$
1&
#520
0$
0&
#525
1$
1&
#530
0$
0&
#535
1$
1&
#540
0$
0&
#545
1$
1&
#550
0$
0&
#555
1$
1&
#560
0$
0&
#565
1$
1&
#570
0$
0&
#575
1$
1&
#580
0$
0&
#585
1$
1&
#590
0$
0&
#595
1$
1&
#600
0$
0&
#605
1$
1&
#610
0$
0&
#615
1$
1&
#620
0$
0&
#625
1$
1&
#630
0$
0&
#635
1$
1&
#640
0$
0&
#645
1$
1&
#650
0$
0&
#655
1$
1&
#660
0$
0&
#665
1$
1&
#670
0$
0&
#675
1$
1&
#680
0$
0&
#685
1$
1&
#690
0$
0&
#695
1$
1&
#700
0$
0&
#705
1$
1&
#710
0$
0&
#715
1$
1&
#720
0$
0&
#725
1$
1&
#730
0$
0&
#735
1$
1&
#740
0$
0&
#745
1$
1&
#750
0$
0&
#755
1$
1&
#760
0$
0&
#765
1$
1&
#770
0$
0&
#775
1$
1&
#780
0$
0&
#785
1$
1&
#790
0$
0&
#795
1$
1&
#800
0$
0&
#805
1$
1&
#810
0$
0&
#815
1$
1&
#820
0$
0&
#825
1$
1&
#830
0$
0&
#835
1$
1&
#840
0$
0&
#845
1$
1&
#850
0$
0&
#855
1$
1&
#860
0$
0&
#865
1$
1&
#870
0$
0&
#875
1$
1&
#880
0$
0&
#885
1$
1&
#890
0$
0&
#895
1$
1&
#900
0$
0&
#905
1$
1&
#910
0$
0&
#915
1$
1&
#920
0$
0&
#925
1$
1&
#930
0$
0&
#935
1$
1&
#940
0$
0&
#945
1$
1&
#950
0$
0&
#955
1$
1&
#960
0$
0&
#965
1$
1&
#970
0$
0&
#975
1$
1&
#980
0$
0&
#985
1$
1&
#990
0$
0&
#995
1$
1&
#1000
0$
0&
